{
    "regions": {
        "base_selection" : {
        "cuts" : "(triplet_muon_n == 3) * (Sum$(triplet_muon_author == 1 || triplet_muon_author == 6) == 3) * (triplet_muon_precisionhits >= 9) * (abs(triplet_charge) == 1) * (triplet_life_time_sig > 10 && triplet_life_time_sig < 80) * (triplet_sa0xy_sig_corrected < 25) * (triplet_mos1_refitted > 220 && triplet_mos2_refitted > 220 && triplet_mss_refitted > 220) *  (triplet_mos1_refitted < 2900 && triplet_mos2_refitted < 2900 && triplet_pvalprod > 1e-9) * (triplet_ref_pt > 2000. && abs(triplet_ref_eta) < 2.7 && triplet_ref_m < 5000.) * (abs(triplet_refit_trk_eta) < 2.5 && triplet_refit_trk_pt[0] > 5500. && triplet_refit_trk_pt[1] > 3500. && triplet_refit_trk_pt[2] > 2500.) * (pass_trigger == 1)", 
        "blinding_cuts": "",
        "blind": "False",
        "forcebins": ""
        },
        "Preselection": {
            "cuts":"((triplet_muon_pt[0] > 3500 && triplet_muon_pt[1] > 3500 && triplet_muon_pt[2] > 3500) || (triplet_muon_pt[0] > 10000 && triplet_muon_pt[1] > 5500 && triplet_muon_pt[2] > 2000)) * (triplet_muon_eta < 3)",
            "blinding_cuts": "",
            "blind": "False",
            "forcebins": ""
        },
        "Preselection_binned": {
            "cuts":"((triplet_muon_pt[0] > 3500 && triplet_muon_pt[1] > 3500 && triplet_muon_pt[2] > 3500) || (triplet_muon_pt[0] > 10000 && triplet_muon_pt[1] > 5500 && triplet_muon_pt[2] > 2000)) * (triplet_muon_eta < 3)",
            "blinding_cuts": "",
            "blind": "False",
            "forcebins": "1600,1650,1675,1700,1725,1750,1775,1800,1850,2000"
        },
        "Loose_selection": {
            "cuts":"(triplet_vertex_pval > 0.1) * (triplet_mos1_refitted > 325) * (triplet_mos2_refitted > 325) * (triplet_mss_refitted > 325) * (triplet_mos1_refitted < 2900) * (triplet_mos2_refitted < 2900) * (triplet_charge == 1 || triplet_charge == -1) * (colljet_pt > 20000) * (triplet_ref_m >= 1600 && triplet_ref_m < 2000)",
            "blinding_cuts": "",
            "blind": "False",
            "forcebins": ""
        },
        "test": {
            "cuts":"(Sum$(triplet_muon_quality < 4) == 3) * (object_n == 1) * (triplet_mos1_refitted<1600) * (triplet_mos2_refitted<1500) * (triplet_mss_refitted<1600) * (triplet_mos1_refitted>350) * (triplet_mos2_refitted>400) * (triplet_mss_refitted>400) * (triplet_charge == 1 || triplet_charge == -1) * (colljet_m<18000)",
            "blinding_cuts": "",
            "blind": "False",
            "forcebins": ""
        }
    }
}            
